10 Basic workflow with brms – BayesERbook: Exposure-response analysis with Bayesian approaches
…
- CmdStanR documentation and vignettes: mc-stan.org/cmdstanr

- CmdStan path: /home/danielle/.cmdstan/cmdstan-2.36.0

- CmdStan version: 2.36.0

10.1 Hyperbolic Emax models

This section shows how to build a standard Emax model for continuous response data using brms. To build the model a simulated data set is used:

Show the code

d_sim_emax

# A tibble: 300 × 9
    dose exposure response_1 response_2 cnt_a cnt_b cnt_c bin_d bin_e
                        
 1   100    4151.       12.8          1  5.71  2.33  7.83     0     1
 2   100    8067.       14.6          1  4.92  4.66  6.74     1     1
 3   100    4878.       12.8          1  4.88  4.21  4.68     1     1
 4   100    9713.       16.6          1  8.42  6.56  1.29     0     1
 5   100   11491.       14.4          0  4.37  3.96  3.55     0     1
 6   100    2452.       12.6          1  8.69  7.60  3.64     0     0
 7   100    5652.       14.8          1  6.61  3.95  5.13     0     0
 8   100    9939.       15.2          1  5.35  7.77  8.29     0     1
 9   100    5817.       14.6          0  5.61  2.24  9.60     0     1
10   100    5176.       13.7          1  6.06  1.79  8.74     0     1
# ℹ 290 more rows
…
Draws were sampled using sample(hmc). For each parameter, Bulk_ESS
and Tail_ESS are effective sample size measures, and Rhat is the potential
scale reduction factor on split chains (at convergence, Rhat = 1).

In this instance it is clear from inspection that a sigmoidal model is unnecessary: the posterior mean for gamma is 1.18 with 95% credible interval from 0.93 to 1.47. A hyperbolic model is the more natural choice here. If explicit model comparison is required, cross-validation methods such as LOO-CV can be used to compare the performance of different brms models estimated from the same data. This is discussed in the next chapter.

10.3 Binary Emax models

Now consider the case where the response is binary. Again, the imulated data set d_sim_emax is used. For this analysis the response_2 variable is used, a binary outcome that is 0 or 1 for each subject:

Show the code

d_sim_emax

# A tibble: 300 × 9
    dose exposure response_1 response_2 cnt_a cnt_b cnt_c bin_d bin_e
                        
 1   100    4151.       12.8          1  5.71  2.33  7.83     0     1
 2   100    8067.       14.6          1  4.92  4.66  6.74     1     1
 3   100    4878.       12.8          1  4.88  4.21  4.68     1     1
 4   100    9713.       16.6          1  8.42  6.56  1.29     0     1
 5   100   11491.       14.4          0  4.37  3.96  3.55     0     1
 6   100    2452.       12.6          1  8.69  7.60  3.64     0     0
 7   100    5652.       14.8          1  6.61  3.95  5.13     0     0
 8   100    9939.       15.2          1  5.35  7.77  8.29     0     1
 9   100    5817.       14.6          0  5.61  2.24  9.60     0     1
10   100    5176.       13.7          1  6.06  1.79  8.74     0     1
# ℹ 290 more rows
…
