12 Data generation – BayesERbook: Exposure-response analysis with Bayesian approaches
…
  return(dat)
}

Call the function to generate the data set:

Show the code

d_example_emax_3cov <- make_continuous_data()
d_example_emax_3cov

# A tibble: 300 × 6
    dose exposure cov_a cov_b cov_c response
   <dbl>    <dbl> <dbl> <dbl> <dbl>    <dbl>
 1   100    4151.  5.71  2.33  7.83     13.8
 2   100    8067.  4.92  4.66  6.74     14.0
 3   100    4878.  4.88  4.21  4.68     13.2
 4   100    9713.  8.42  6.56  1.29     16.1
 5   100   11491.  4.37  3.96  3.55     15.1
 6   100    2452.  8.69  7.60  3.64     13.4
 7   100    5652.  6.61  3.95  5.13     13.5
 8   100    9939.  5.35  7.77  8.29     15.5
 9   100    5817.  5.61  2.24  9.60     12.5
10   100    5176.  6.06  1.79  8.74     13.3
# ℹ 290 more rows
…
  dat <- bind_rows(
    make_data(dose = 100, n = 100, par = par),  
    make_data(dose = 200, n = 100, par = par),
    make_data(dose = 300, n = 100, par = par)
  ) 
  
  return(dat)
}

Show the code

d_example_emax_bin_3cov <- make_binary_data()
d_example_emax_bin_3cov

# A tibble: 300 × 6
    dose exposure cov_a cov_b cov_c response
   <dbl>    <dbl> <dbl> <dbl> <dbl>    <dbl>
 1   100    4151.  5.71  2.33  7.83        0
 2   100    8067.  4.92  4.66  6.74        1
 3   100    4878.  4.88  4.21  4.68        1
 4   100    9713.  8.42  6.56  1.29        1
 5   100   11491.  4.37  3.96  3.55        0
 6   100    2452.  8.69  7.60  3.64        0
 7   100    5652.  6.61  3.95  5.13        0
 8   100    9939.  5.35  7.77  8.29        0
 9   100    5817.  5.61  2.24  9.60        0
10   100    5176.  6.06  1.79  8.74        0
# ℹ 290 more rows
…
